…
Using tidyverse to fully exploit approxmapR

The output is what is called as a tibble (a supercharged dataframe) that makes it possible to do things like storing a list of tibbles (df_sequences) in a column. To inspect the say the first 2 rows, we can use standard dplyr commands.

df_sequences <- 
  cluster_seqs %>%
      top_n(2) %>%
        pull(df_sequences)

## Selecting by n

df_sequences

## [[1]]
## # A tibble: 107 x 2
##       id sequence      
##    <int> <list>        
##  1    66 <S3: Sequence>
##  2   126 <S3: Sequence>
##  3   205 <S3: Sequence>
##  4   272 <S3: Sequence>
##  5   326 <S3: Sequence>
##  6   355 <S3: Sequence>
##  7   482 <S3: Sequence>
##  8   519 <S3: Sequence>
##  9   579 <S3: Sequence>
## 10   606 <S3: Sequence>
## # ... with 97 more rows
## 
## [[2]]
## # A tibble: 100 x 2
##       id sequence      
##    <int> <list>        
##  1    26 <S3: Sequence>
##  2    68 <S3: Sequence>
##  3   116 <S3: Sequence>
##  4   120 <S3: Sequence>
##  5   150 <S3: Sequence>
##  6   169 <S3: Sequence>
##  7   201 <S3: Sequence>
##  8   202 <S3: Sequence>
##  9   213 <S3: Sequence>
## 10   237 <S3: Sequence>
## # ... with 90 more rows

To explore these sequences, we also have tidy print methods. The functional programming toolkit for R, purrr provides an efficient means to fully exploit such outputs.

df_sequences %>%
          map(function(df_cluster){
            df_cluster %>%
              mutate(sequence = map_chr(sequence, format_sequence))
          })

## [[1]]
## # A tibble: 107 x 2
##       id sequence                                                         
##    <int> <chr>                                                            
##  1    66 <(training) (training) (training) (training) (training) (trainin…
##  2   126 <(training) (training) (training) (training) (training) (trainin…
##  3   205 <(training) (training) (training) (training) (training) (trainin…
##  4   272 <(training) (training) (training) (training) (training) (trainin…
##  5   326 <(training) (training) (training) (training) (training) (trainin…
##  6   355 <(training) (training) (training) (training) (training) (trainin…
##  7   482 <(training) (training) (training) (training) (training) (trainin…
##  8   519 <(training) (training) (training) (training) (training) (trainin…
##  9   579 <(training) (training) (training) (training) (training) (trainin…
## 10   606 <(training) (training) (training) (training) (training) (trainin…
## # ... with 97 more rows
## 
## [[2]]
## # A tibble: 100 x 2
##       id sequence                                                         
##    <int> <chr>                                                            
##  1    26 <(employment) (employment) (employment) (employment) (employment…
##  2    68 <(employment) (employment) (employment) (employment) (employment…
##  3   116 <(employment) (employment) (employment) (employment) (employment…
##  4   120 <(employment) (employment) (employment) (employment) (employment…
##  5   150 <(employment) (employment) (employment) (employment) (employment…
##  6   169 <(employment) (employment) (employment) (employment) (employment…
##  7   201 <(employment) (employment) (employment) (employment) (employment…
##  8   202 <(employment) (employment) (employment) (employment) (employment…
##  9   213 <(employment) (employment) (employment) (employment) (employment…
## 10   237 <(employment) (employment) (employment) (employment) (employment…
## # ... with 90 more rows
