…
Letâ€™s see how the table looks.

## # A tibble: 7,604 x 7
##    id_chat time                sender text         media emoji emoji_count
##      <int> <dttm>              <chr>  <chr>        <lgl> <chr>       <int>
##  1       1 2018-05-07 23:45:00 A      My life ğŸ˜‚ğŸ˜‚ğŸ˜‚â€¦ FALSE ğŸ˜‚ğŸ˜‚ğŸ˜‚ğŸ˜‚â€¦           5
##  2       2 2018-05-07 23:47:00 A      Sorry for sâ€¦ FALSE ğŸ˜‚ğŸ˜‚            2
##  3       3 2018-05-07 23:47:00 A      It just came FALSE <NA>            0
##  4       4 2018-05-07 23:48:00 B      Wait         FALSE <NA>            0
##  5       5 2018-05-07 23:48:00 B      One bad jokâ€¦ FALSE <NA>            0
##  6       6 2018-05-07 23:49:00 B      Poor network FALSE <NA>            0
##  7       7 2018-05-07 23:49:00 B      ""           TRUE  <NA>            0
##  8       8 2018-05-07 23:50:00 A      ğŸ˜‚ğŸ˜‚ğŸ˜‚ğŸ˜‚ğŸ˜‚   FALSE ğŸ˜‚ğŸ˜‚ğŸ˜‚ğŸ˜‚â€¦           5
##  9       9 2018-05-07 23:52:00 B      All pls to â€¦ FALSE ğŸ™              1
## 10      10 2018-05-07 23:53:00 A      When guys sâ€¦ FALSE <NA>            0
## # ... with 7,594 more rows
…
